[
    {
        "user": "jpoole",
        "created_at_unixtime": 1448221456.6646008,
        "id": 3731785240073317438,
        "text": "Glad I bought my electronics from @fudgemart",
        "created_at": "Sun Nov 22 14:44:16 +0000 2015"
    },
    {
        "user": "jpoole",
        "created_at_unixtime": 1440407147.033846,
        "id": 3600730356622213650,
        "text": "Techical support for my new computer as A+, thank you @fudgemart",
        "created_at": "Mon Aug 24 05:05:47 +0000 2015"
    },
    {
        "user": "tpani",
        "created_at_unixtime": 1448687949.6857476,
        "id": 4211873369158903141,
        "text": "Do you enjoy digital downloads? Try @fudgemart.",
        "created_at": "Sat Nov 28 00:19:09 +0000 2015"
    },
    {
        "user": "lhvmeehom",
        "created_at_unixtime": 1422592078.0295255,
        "id": 803003777759256860,
        "text": "The Electronics department at #fudgemart is amazing. So helpful!",
        "created_at": "Thu Jan 29 23:27:58 +0000 2015"
    },
    {
        "user": "mmelator",
        "created_at_unixtime": 1423344549.1064806,
        "id": 2073670596081008741,
        "text": "Hey fudgemart, why is your support so bad? #angry",
        "created_at": "Sat Feb 07 16:29:09 +0000 2015"
    },
    {
        "user": "mmelator",
        "created_at_unixtime": 1432135650.8858037,
        "id": 4179972589054475991,
        "text": "I like the Fudgemart website",
        "created_at": "Wed May 20 11:27:30 +0000 2015"
    },
    {
        "user": "rdeboat",
        "created_at_unixtime": 1443258613.345817,
        "id": 3924522994216591792,
        "text": "@fudgemart is better than @amazeen",
        "created_at": "Sat Sep 26 05:10:13 +0000 2015"
    },
    {
        "user": "ojouglad",
        "created_at_unixtime": 1432570907.4274,
        "id": 3919137412758564448,
        "text": "Do you enjoy digital downloads? Try @fudgemart.",
        "created_at": "Mon May 25 12:21:47 +0000 2015"
    },
    {
        "user": "jpoole",
        "created_at_unixtime": 1442671476.7668562,
        "id": 249967325734032089,
        "text": "Nothing like the feeling of helplessness from a Fudgemart product.",
        "created_at": "Sat Sep 19 10:04:36 +0000 2015"
    },
    {
        "user": "etasomthin",
        "created_at_unixtime": 1428709279.618265,
        "id": 2653290268387611223,
        "text": "likewise, @fudgemart",
        "created_at": "Fri Apr 10 19:41:19 +0000 2015"
    },
    {
        "user": "bmelator",
        "created_at_unixtime": 1426480668.7317135,
        "id": 2078567958227083477,
        "text": "The books department at #fudgemart is amazing. Very helpful!",
        "created_at": "Mon Mar 16 00:37:48 +0000 2015"
    },
    {
        "user": "ojouglad",
        "created_at_unixtime": 1439499457.2654028,
        "id": 3616833400370551,
        "text": "The books department at #fudgemart is amazing. Great support!",
        "created_at": "Thu Aug 13 16:57:37 +0000 2015"
    },
    {
        "user": "rdeboat",
        "created_at_unixtime": 1424255181.0683002,
        "id": 2294985664211931947,
        "text": "Happy with my service from @fudgemart",
        "created_at": "Wed Feb 18 05:26:21 +0000 2015"
    },
    {
        "user": "bmelator",
        "created_at_unixtime": 1438402725.2024066,
        "id": 3808908264266519030,
        "text": "You're the best @fudgemart! A+ shipping!",
        "created_at": "Sat Aug 01 00:18:45 +0000 2015"
    },
    {
        "user": "ddelyons",
        "created_at_unixtime": 1449720281.5708938,
        "id": 4220937280917328724,
        "text": "I was very happy with my latest purchase from #fudgemart",
        "created_at": "Wed Dec 09 23:04:41 +0000 2015"
    },
    {
        "user": "sbellum",
        "created_at_unixtime": 1427269865.5350304,
        "id": 1585839959226703980,
        "text": "#fudgemart customer service is predictable",
        "created_at": "Wed Mar 25 03:51:05 +0000 2015"
    },
    {
        "user": "edetyers",
        "created_at_unixtime": 1434673568.5787673,
        "id": 1997912773727870272,
        "text": "I was very happy with my latest purchase from #fudgemart",
        "created_at": "Thu Jun 18 20:26:08 +0000 2015"
    },
    {
        "user": "akuss",
        "created_at_unixtime": 1426966017.5159144,
        "id": 4489284296621426511,
        "text": "There are some new products on Fudgemart. #fudgemart",
        "created_at": "Sat Mar 21 15:26:57 +0000 2015"
    },
    {
        "user": "lhvmeehom",
        "created_at_unixtime": 1450459672.8101933,
        "id": 2366033543806144973,
        "text": "Fudgemart has a lot of Books available for purchase.",
        "created_at": "Fri Dec 18 12:27:52 +0000 2015"
    },
    {
        "user": "balott",
        "created_at_unixtime": 1431775703.4096498,
        "id": 206956462573517183,
        "text": "Stellar experience at fudgemart. Kudos.",
        "created_at": "Sat May 16 07:28:23 +0000 2015"
    },
    {
        "user": "sofewe",
        "created_at_unixtime": 1448316743.209499,
        "id": 3067158767857887238,
        "text": "Nothing like the feeling of helplessness from a Fudgemart product.",
        "created_at": "Mon Nov 23 17:12:23 +0000 2015"
    },
    {
        "user": "bmelator",
        "created_at_unixtime": 1430076028.024409,
        "id": 1662043659960137534,
        "text": "Happy I bought my electronics from @fudgemart",
        "created_at": "Sun Apr 26 15:20:28 +0000 2015"
    },
    {
        "user": "bmelator",
        "created_at_unixtime": 1448204608.0668576,
        "id": 776177753416518518,
        "text": "@fudgemart is better than @amazeen",
        "created_at": "Sun Nov 22 10:03:28 +0000 2015"
    },
    {
        "user": "etasomthin",
        "created_at_unixtime": 1434027377.696474,
        "id": 4306834789506315668,
        "text": "Yo, @fudgemart",
        "created_at": "Thu Jun 11 08:56:17 +0000 2015"
    },
    {
        "user": "lkarfurless",
        "created_at_unixtime": 1429752447.6393318,
        "id": 1976157485912439872,
        "text": "Shopping 4 books, electronics, and jewelry at #fudgemart.",
        "created_at": "Wed Apr 22 21:27:27 +0000 2015"
    },
    {
        "user": "mmelator",
        "created_at_unixtime": 1440525352.6835177,
        "id": 1383425802006992385,
        "text": "Yo, @fudgemart",
        "created_at": "Tue Aug 25 13:55:52 +0000 2015"
    },
    {
        "user": "jpoole",
        "created_at_unixtime": 1446996579.0093412,
        "id": 414371460413198922,
        "text": "Customer satisfaction through the roof right now.",
        "created_at": "Sun Nov 08 10:29:39 +0000 2015"
    },
    {
        "user": "ojouglad",
        "created_at_unixtime": 1440341727.6193213,
        "id": 4270014936616532266,
        "text": "Happy I bought my electronics from @fudgemart",
        "created_at": "Sun Aug 23 10:55:27 +0000 2015"
    },
    {
        "user": "balott",
        "created_at_unixtime": 1420812471.8915963,
        "id": 1823360064769154964,
        "text": "I make my first order from fudgemart last week.",
        "created_at": "Fri Jan 09 09:07:51 +0000 2015"
    },
    {
        "user": "ojouglad",
        "created_at_unixtime": 1429590289.6420867,
        "id": 22074629453503358,
        "text": "What's not to like? They have everything.",
        "created_at": "Tue Apr 21 00:24:49 +0000 2015"
    },
    {
        "user": "rdeboat",
        "created_at_unixtime": 1433566790.2824655,
        "id": 3841580431235994292,
        "text": "Love or hate it. Fudgemart just is.",
        "created_at": "Sat Jun 06 00:59:50 +0000 2015"
    },
    {
        "user": "sbellum",
        "created_at_unixtime": 1435571596.1817737,
        "id": 3411992826155371747,
        "text": "Came home to a big smile my #fudgemart package arrived.",
        "created_at": "Mon Jun 29 05:53:16 +0000 2015"
    },
    {
        "user": "ojouglad",
        "created_at_unixtime": 1448913267.2877667,
        "id": 1678708920183026684,
        "text": "The Electronics department at #fudgemart is amazing. Great support!",
        "created_at": "Mon Nov 30 14:54:27 +0000 2015"
    },
    {
        "user": "rovlight",
        "created_at_unixtime": 1437697593.1362915,
        "id": 1230023645168699050,
        "text": "Fudgemart's digital downloads is lacking titles!",
        "created_at": "Thu Jul 23 20:26:33 +0000 2015"
    },
    {
        "user": "bmelator",
        "created_at_unixtime": 1451080184.0501041,
        "id": 2486857482791937636,
        "text": "Stellar experience at fudgemart. Kudos.",
        "created_at": "Fri Dec 25 16:49:44 +0000 2015"
    },
    {
        "user": "tanott",
        "created_at_unixtime": 1447472391.0195184,
        "id": 462948050211737343,
        "text": "Bad digital downloads @fudgemart. Poor selection.",
        "created_at": "Fri Nov 13 22:39:51 +0000 2015"
    },
    {
        "user": "tanott",
        "created_at_unixtime": 1436922059.4173315,
        "id": 2707528156602621917,
        "text": "The books department at #fudgemart is amazing. Very helpful!",
        "created_at": "Tue Jul 14 21:00:59 +0000 2015"
    },
    {
        "user": "ojouglad",
        "created_at_unixtime": 1424511431.0690556,
        "id": 3259581614493047596,
        "text": "Happy I bought my books from @fudgemart",
        "created_at": "Sat Feb 21 04:37:11 +0000 2015"
    },
    {
        "user": "edetyers",
        "created_at_unixtime": 1436624082.109266,
        "id": 642123691566476176,
        "text": "I make my first order from fudgemart last week.",
        "created_at": "Sat Jul 11 10:14:42 +0000 2015"
    },
    {
        "user": "bmelator",
        "created_at_unixtime": 1442048063.953622,
        "id": 4483464038232271876,
        "text": "I Need more books, @fudgemart #encouraging.",
        "created_at": "Sat Sep 12 04:54:23 +0000 2015"
    },
    {
        "user": "ojouglad",
        "created_at_unixtime": 1433999329.1785488,
        "id": 2146555653039372159,
        "text": "How old are your clothes? Buy new ones at Fudgemart?",
        "created_at": "Thu Jun 11 01:08:49 +0000 2015"
    },
    {
        "user": "ddelyons",
        "created_at_unixtime": 1449914449.85029,
        "id": 4455371355674909693,
        "text": "Love or hate it. Fudgemart just is.",
        "created_at": "Sat Dec 12 05:00:49 +0000 2015"
    },
    {
        "user": "edetyers",
        "created_at_unixtime": 1451477966.64728,
        "id": 203838478131784534,
        "text": "This is fudgemart. The e-commerce platform.",
        "created_at": "Wed Dec 30 07:19:26 +0000 2015"
    },
    {
        "user": "etasomthin",
        "created_at_unixtime": 1434939897.4270344,
        "id": 2481552909366499547,
        "text": "#fudgemart worse than #amazeen. #helpless.",
        "created_at": "Sun Jun 21 22:24:57 +0000 2015"
    },
    {
        "user": "lhvmeehom",
        "created_at_unixtime": 1444200343.6761284,
        "id": 1476732439971739388,
        "text": "I was very happy with my latest purchase from #fudgemart",
        "created_at": "Wed Oct 07 02:45:43 +0000 2015"
    },
    {
        "user": "rovlight",
        "created_at_unixtime": 1439774138.0678208,
        "id": 424493172193108709,
        "text": "Just got some books from #fudgemart. Awesome!",
        "created_at": "Sun Aug 16 21:15:38 +0000 2015"
    },
    {
        "user": "jpoole",
        "created_at_unixtime": 1437975182.1579833,
        "id": 3773884546581241854,
        "text": "Worst purchase ever: digital downloads at @fudgemart.",
        "created_at": "Mon Jul 27 01:33:02 +0000 2015"
    },
    {
        "user": "sbellum",
        "created_at_unixtime": 1422139925.2542202,
        "id": 2077225311068616018,
        "text": "Glad I bought my books from @fudgemart",
        "created_at": "Sat Jan 24 17:52:05 +0000 2015"
    },
    {
        "user": "ddelyons",
        "created_at_unixtime": 1432590220.0031471,
        "id": 4260139941532363280,
        "text": "The Electronics department at #fudgemart is amazing. So helpful!",
        "created_at": "Mon May 25 17:43:40 +0000 2015"
    },
    {
        "user": "ddelyons",
        "created_at_unixtime": 1432622535.3357136,
        "id": 2927404910888409504,
        "text": "Shopping on #fudgemart website is carefree.",
        "created_at": "Tue May 26 02:42:15 +0000 2015"
    },
    {
        "user": "edetyers",
        "created_at_unixtime": 1440734003.614288,
        "id": 619129959182047507,
        "text": "Fudgemart just is.",
        "created_at": "Thu Aug 27 23:53:23 +0000 2015"
    },
    {
        "user": "rovlight",
        "created_at_unixtime": 1443753008.402625,
        "id": 4376442679800023748,
        "text": "Why so horrible digital downloads? comeon, @fudgemart",
        "created_at": "Thu Oct 01 22:30:08 +0000 2015"
    },
    {
        "user": "rovlight",
        "created_at_unixtime": 1425102923.9322703,
        "id": 3368359167388703400,
        "text": "Do you enjoy books? Try @fudgemart.",
        "created_at": "Sat Feb 28 00:55:23 +0000 2015"
    },
    {
        "user": "tanott",
        "created_at_unixtime": 1432648855.0320082,
        "id": 1333597525298718987,
        "text": "Hey fudgemart, why is your support so bad? #frustrated",
        "created_at": "Tue May 26 10:00:55 +0000 2015"
    },
    {
        "user": "balott",
        "created_at_unixtime": 1437803107.6146996,
        "id": 1272843623548564999,
        "text": "How many books can you read? Fudgemart has a nice selection.",
        "created_at": "Sat Jul 25 01:45:07 +0000 2015"
    },
    {
        "user": "balott",
        "created_at_unixtime": 1431125223.9126828,
        "id": 4433630053092200649,
        "text": "Just placed an order today. thx @fudgemart",
        "created_at": "Fri May 08 18:47:03 +0000 2015"
    },
    {
        "user": "edetyers",
        "created_at_unixtime": 1435323296.5705714,
        "id": 942928476379842951,
        "text": "This is fudgemart. The e-commerce platform.",
        "created_at": "Fri Jun 26 08:54:56 +0000 2015"
    },
    {
        "user": "bmelator",
        "created_at_unixtime": 1445713417.231098,
        "id": 2870437178931879502,
        "text": "The books department at #fudgemart is amazing. Great support!",
        "created_at": "Sat Oct 24 15:03:37 +0000 2015"
    },
    {
        "user": "lkarfurless",
        "created_at_unixtime": 1422848316.5208516,
        "id": 1911935310373945915,
        "text": "How old are your clothes? Buy new ones at Fudgemart?",
        "created_at": "Sun Feb 01 22:38:36 +0000 2015"
    },
    {
        "user": "sladd",
        "created_at_unixtime": 1441703234.5500243,
        "id": 4293455405272314849,
        "text": "Effective, Eloquent shopping! #fudgemart",
        "created_at": "Tue Sep 08 05:07:14 +0000 2015"
    },
    {
        "user": "edetyers",
        "created_at_unixtime": 1430848704.6049514,
        "id": 1682524703217110597,
        "text": "Came home to a big smile my #fudgemart package arrived.",
        "created_at": "Tue May 05 13:58:24 +0000 2015"
    },
    {
        "user": "tanott",
        "created_at_unixtime": 1449203400.2684178,
        "id": 503564727154486748,
        "text": "Happy with my service from @fudgemart",
        "created_at": "Thu Dec 03 23:30:00 +0000 2015"
    },
    {
        "user": "ojouglad",
        "created_at_unixtime": 1448029269.676444,
        "id": 786190517974910376,
        "text": "Terrible. So Bad. #fudgemart",
        "created_at": "Fri Nov 20 09:21:09 +0000 2015"
    },
    {
        "user": "ojouglad",
        "created_at_unixtime": 1449865034.8742726,
        "id": 4025702939810939183,
        "text": "Came home to a big smile my #fudgemart package arrived.",
        "created_at": "Fri Dec 11 15:17:14 +0000 2015"
    },
    {
        "user": "bmelator",
        "created_at_unixtime": 1424086873.6844645,
        "id": 2740263960346667907,
        "text": "There are new digital downloads on #fudgemart",
        "created_at": "Mon Feb 16 06:41:13 +0000 2015"
    },
    {
        "user": "rovlight",
        "created_at_unixtime": 1444669630.7588139,
        "id": 401444510363169850,
        "text": "Why so horrible digital downloads? comeon, @fudgemart",
        "created_at": "Mon Oct 12 13:07:10 +0000 2015"
    },
    {
        "user": "rdeboat",
        "created_at_unixtime": 1442113617.972544,
        "id": 93861813624782395,
        "text": "Nothing like the feeling of helplessness from a Fudgemart product.",
        "created_at": "Sat Sep 12 23:06:57 +0000 2015"
    },
    {
        "user": "bmelator",
        "created_at_unixtime": 1443252234.7097864,
        "id": 2697336903592783158,
        "text": "I like the Fudgemart website",
        "created_at": "Sat Sep 26 03:23:54 +0000 2015"
    },
    {
        "user": "balott",
        "created_at_unixtime": 1441963907.2027793,
        "id": 2742559429069394922,
        "text": "The shipping process is flawed. Two weeks? Really? #fudgemart",
        "created_at": "Fri Sep 11 05:31:47 +0000 2015"
    },
    {
        "user": "bmelator",
        "created_at_unixtime": 1428231929.3140502,
        "id": 3652948730432501351,
        "text": "Fudgemart's digital downloads selection is uneventful!",
        "created_at": "Sun Apr 05 07:05:29 +0000 2015"
    },
    {
        "user": "lhvmeehom",
        "created_at_unixtime": 1421718152.8606684,
        "id": 1788049517585879477,
        "text": "@fudgemart is better than @amazeen",
        "created_at": "Mon Jan 19 20:42:32 +0000 2015"
    },
    {
        "user": "bmelator",
        "created_at_unixtime": 1451431622.888236,
        "id": 789125944229009253,
        "text": "#fudgemart customer service is predictable",
        "created_at": "Tue Dec 29 18:27:02 +0000 2015"
    },
    {
        "user": "rdeboat",
        "created_at_unixtime": 1423927498.8857162,
        "id": 1094168948265392573,
        "text": "Glad I bought my books from @fudgemart",
        "created_at": "Sat Feb 14 10:24:58 +0000 2015"
    },
    {
        "user": "lkarfurless",
        "created_at_unixtime": 1429948585.2653167,
        "id": 1709112289023645023,
        "text": "I make my first order from fudgemart last week.",
        "created_at": "Sat Apr 25 03:56:25 +0000 2015"
    },
    {
        "user": "etasomthin",
        "created_at_unixtime": 1428344272.0435772,
        "id": 2256523108231425894,
        "text": "Yo, @fudgemart",
        "created_at": "Mon Apr 06 14:17:52 +0000 2015"
    },
    {
        "user": "tanott",
        "created_at_unixtime": 1446110679.381787,
        "id": 1452949241928492161,
        "text": "Happy I bought my books from @fudgemart",
        "created_at": "Thu Oct 29 05:24:39 +0000 2015"
    },
    {
        "user": "lkarfurless",
        "created_at_unixtime": 1444843315.5316978,
        "id": 3150745383690810678,
        "text": "Shopping 4 books, electronics, and jewelry at #fudgemart.",
        "created_at": "Wed Oct 14 13:21:55 +0000 2015"
    },
    {
        "user": "tanott",
        "created_at_unixtime": 1423919131.346954,
        "id": 2940740368244916788,
        "text": "Wonderful jewelry selection, @fudgemart",
        "created_at": "Sat Feb 14 08:05:31 +0000 2015"
    },
    {
        "user": "etasomthin",
        "created_at_unixtime": 1435224460.6491995,
        "id": 2488710568523137455,
        "text": "Terrible. So Bad. #fudgemart",
        "created_at": "Thu Jun 25 05:27:40 +0000 2015"
    },
    {
        "user": "bmelator",
        "created_at_unixtime": 1422037375.6123338,
        "id": 4140962789744159163,
        "text": "Wonderful jewelry selection, @fudgemart",
        "created_at": "Fri Jan 23 13:22:55 +0000 2015"
    },
    {
        "user": "rdeboat",
        "created_at_unixtime": 1439809505.9434977,
        "id": 4427359824306375448,
        "text": "There are some new products on Fudgemart. #fudgemart",
        "created_at": "Mon Aug 17 07:05:05 +0000 2015"
    },
    {
        "user": "bmelator",
        "created_at_unixtime": 1422694690.8957965,
        "id": 544938086380368491,
        "text": "How old are your clothes? Buy new ones at Fudgemart?",
        "created_at": "Sat Jan 31 03:58:10 +0000 2015"
    },
    {
        "user": "rdeboat",
        "created_at_unixtime": 1429728796.1277893,
        "id": 171154176888276283,
        "text": "Glad I bought my jewelry from @fudgemart",
        "created_at": "Wed Apr 22 14:53:16 +0000 2015"
    },
    {
        "user": "sofewe",
        "created_at_unixtime": 1439601893.9795692,
        "id": 2252148040393819292,
        "text": "@fudgemart is better than @amazeen",
        "created_at": "Fri Aug 14 21:24:53 +0000 2015"
    },
    {
        "user": "ccayne",
        "created_at_unixtime": 1435521735.5212655,
        "id": 3822064164356969030,
        "text": "Happy I bought my jewelry from @fudgemart",
        "created_at": "Sun Jun 28 16:02:15 +0000 2015"
    },
    {
        "user": "etasomthin",
        "created_at_unixtime": 1427406217.2983358,
        "id": 2615576846950617825,
        "text": "Shopping 4 books, electronics, and jewelry at #fudgemart.",
        "created_at": "Thu Mar 26 17:43:37 +0000 2015"
    },
    {
        "user": "jpoole",
        "created_at_unixtime": 1430437557.722771,
        "id": 827204278624942683,
        "text": "I hate the fudgemart books selection. Terrible.",
        "created_at": "Thu Apr 30 19:45:57 +0000 2015"
    },
    {
        "user": "balott",
        "created_at_unixtime": 1430570404.0520318,
        "id": 2184660114639462747,
        "text": "Glad I bought my books from @fudgemart",
        "created_at": "Sat May 02 08:40:04 +0000 2015"
    },
    {
        "user": "edetyers",
        "created_at_unixtime": 1430389009.1657243,
        "id": 1416436079206066966,
        "text": "Just got some Jewelry from #fudgemart. Awesome!",
        "created_at": "Thu Apr 30 06:16:49 +0000 2015"
    },
    {
        "user": "edetyers",
        "created_at_unixtime": 1429147715.2971306,
        "id": 1105046876800470685,
        "text": "Happy with my service from @fudgemart",
        "created_at": "Wed Apr 15 21:28:35 +0000 2015"
    },
    {
        "user": "ojouglad",
        "created_at_unixtime": 1444122519.6327221,
        "id": 4372043140593215484,
        "text": "Really enjoying my jewelry purchase from @fudgemart",
        "created_at": "Tue Oct 06 05:08:39 +0000 2015"
    },
    {
        "user": "rdeboat",
        "created_at_unixtime": 1431108977.4787931,
        "id": 2717827107607537016,
        "text": "Digital downloads selection on fudgemart is freakishly small. #bad",
        "created_at": "Fri May 08 14:16:17 +0000 2015"
    },
    {
        "user": "etasomthin",
        "created_at_unixtime": 1450196824.74946,
        "id": 1195458180840182642,
        "text": "There are new digital downloads on #fudgemart",
        "created_at": "Tue Dec 15 11:27:04 +0000 2015"
    },
    {
        "user": "edetyers",
        "created_at_unixtime": 1423314625.6257095,
        "id": 1942116576821067942,
        "text": "The books department at #fudgemart is amazing. Very helpful!",
        "created_at": "Sat Feb 07 08:10:25 +0000 2015"
    },
    {
        "user": "sofewe",
        "created_at_unixtime": 1421345214.4013712,
        "id": 4369565143283181576,
        "text": "likewise, @fudgemart",
        "created_at": "Thu Jan 15 13:06:54 +0000 2015"
    },
    {
        "user": "jpoole",
        "created_at_unixtime": 1442562445.720064,
        "id": 791606052168661812,
        "text": "I'm really enjoying my new stuff from fudgemart",
        "created_at": "Fri Sep 18 03:47:25 +0000 2015"
    },
    {
        "user": "sbellum",
        "created_at_unixtime": 1425702352.1333926,
        "id": 2460667152808745442,
        "text": "I make my first order from fudgemart last week.",
        "created_at": "Fri Mar 06 23:25:52 +0000 2015"
    },
    {
        "user": "rdeboat",
        "created_at_unixtime": 1427222092.2451727,
        "id": 4505993380821869873,
        "text": "Happy I bought my electronics from @fudgemart",
        "created_at": "Tue Mar 24 14:34:52 +0000 2015"
    },
    {
        "user": "bdehatchett",
        "created_at_unixtime": 1444947505.0787222,
        "id": 145845309746764179,
        "text": "I was very happy with my latest purchase from #fudgemart",
        "created_at": "Thu Oct 15 18:18:25 +0000 2015"
    },
    {
        "user": "bdehatchett",
        "created_at_unixtime": 1446462459.9946234,
        "id": 1423468891095559747,
        "text": "Who uses the fudgemart website",
        "created_at": "Mon Nov 02 06:07:39 +0000 2015"
    },
    {
        "user": "edetyers",
        "created_at_unixtime": 1443446438.7265465,
        "id": 4366340990425716647,
        "text": "@fudgemart is better than @amazeen",
        "created_at": "Mon Sep 28 09:20:38 +0000 2015"
    },
    {
        "user": "lhvmeehom",
        "created_at_unixtime": 1424007001.4724348,
        "id": 1717275937507951560,
        "text": "There are some new products on Fudgemart. #fudgemart",
        "created_at": "Sun Feb 15 08:30:01 +0000 2015"
    },
    {
        "user": "balott",
        "created_at_unixtime": 1451562607.422617,
        "id": 1430958538031374594,
        "text": "There are some new products on Fudgemart. #fudgemart",
        "created_at": "Thu Dec 31 06:50:07 +0000 2015"
    },
    {
        "user": "rdeboat",
        "created_at_unixtime": 1434490796.6432545,
        "id": 1618801145508236501,
        "text": "I'm tired of being on the phone with electroincs support at @fudgemart",
        "created_at": "Tue Jun 16 17:39:56 +0000 2015"
    },
    {
        "user": "rovlight",
        "created_at_unixtime": 1430690904.774831,
        "id": 499868177739929426,
        "text": "While I like their electronics, the books selection is lacking.",
        "created_at": "Sun May 03 18:08:24 +0000 2015"
    },
    {
        "user": "edetyers",
        "created_at_unixtime": 1433892623.1595988,
        "id": 2054125253127801148,
        "text": "Shopping 4 books, electronics, and jewelry at #fudgemart.",
        "created_at": "Tue Jun 09 19:30:23 +0000 2015"
    },
    {
        "user": "edetyers",
        "created_at_unixtime": 1441187983.7615926,
        "id": 3566507670675744505,
        "text": "How old are your clothes? Buy new ones at Fudgemart?",
        "created_at": "Wed Sep 02 05:59:43 +0000 2015"
    },
    {
        "user": "mrofone",
        "created_at_unixtime": 1421594123.2901118,
        "id": 3328453766311715811,
        "text": "Hey fudgemart, why is your support so bad? #frustrated",
        "created_at": "Sun Jan 18 10:15:23 +0000 2015"
    },
    {
        "user": "ojouglad",
        "created_at_unixtime": 1420857399.1882868,
        "id": 1631276380456686590,
        "text": "I like the Fudgemart website",
        "created_at": "Fri Jan 09 21:36:39 +0000 2015"
    },
    {
        "user": "lkarfurless",
        "created_at_unixtime": 1447440214.6846592,
        "id": 1809127744331031796,
        "text": "Fudgemart has a lot of Books available for purchase.",
        "created_at": "Fri Nov 13 13:43:34 +0000 2015"
    },
    {
        "user": "ojouglad",
        "created_at_unixtime": 1438791274.6081629,
        "id": 3636139915558324380,
        "text": "Just got some Jewelry from #fudgemart. Awesome!",
        "created_at": "Wed Aug 05 12:14:34 +0000 2015"
    },
    {
        "user": "rdeboat",
        "created_at_unixtime": 1429542908.0823998,
        "id": 3952724441257738647,
        "text": "I love you, @fudgemart",
        "created_at": "Mon Apr 20 11:15:08 +0000 2015"
    },
    {
        "user": "bmelator",
        "created_at_unixtime": 1435768735.0606687,
        "id": 1029113340942294688,
        "text": "Just placed an order today. thx @fudgemart",
        "created_at": "Wed Jul 01 12:38:55 +0000 2015"
    },
    {
        "user": "balott",
        "created_at_unixtime": 1432936099.2590997,
        "id": 4003868707047926355,
        "text": "Came home to a big smile my #fudgemart package arrived.",
        "created_at": "Fri May 29 17:48:19 +0000 2015"
    },
    {
        "user": "bmelator",
        "created_at_unixtime": 1433278365.8853543,
        "id": 3388704358744625704,
        "text": "Love or hate it. Fudgemart just is.",
        "created_at": "Tue Jun 02 16:52:45 +0000 2015"
    },
    {
        "user": "edetyers",
        "created_at_unixtime": 1437050483.8180137,
        "id": 3376991921931371247,
        "text": "There are some new products on Fudgemart. #fudgemart",
        "created_at": "Thu Jul 16 08:41:23 +0000 2015"
    },
    {
        "user": "ccayne",
        "created_at_unixtime": 1448944636.132712,
        "id": 3065471403644067103,
        "text": "The books department at #fudgemart is amazing. Great support!",
        "created_at": "Mon Nov 30 23:37:16 +0000 2015"
    },
    {
        "user": "tpani",
        "created_at_unixtime": 1427029905.078461,
        "id": 1464408160794534506,
        "text": "Shopping on #fudgemart website is carefree.",
        "created_at": "Sun Mar 22 09:11:45 +0000 2015"
    },
    {
        "user": "akuss",
        "created_at_unixtime": 1445851869.2755654,
        "id": 1534861702041861570,
        "text": "Fudgemart customer support is horrible. The worst.",
        "created_at": "Mon Oct 26 05:31:09 +0000 2015"
    },
    {
        "user": "ccayne",
        "created_at_unixtime": 1446734532.8730872,
        "id": 1784566880589827588,
        "text": "Effective, Eloquent shopping! #fudgemart",
        "created_at": "Thu Nov 05 09:42:12 +0000 2015"
    },
    {
        "user": "ojouglad",
        "created_at_unixtime": 1448219450.4760323,
        "id": 2870008257290781735,
        "text": "Just placed an order today. thx @fudgemart",
        "created_at": "Sun Nov 22 14:10:50 +0000 2015"
    },
    {
        "user": "ojouglad",
        "created_at_unixtime": 1440178740.8026268,
        "id": 3838115887959977613,
        "text": "Really enjoying my electronics purchase from @fudgemart",
        "created_at": "Fri Aug 21 13:39:00 +0000 2015"
    },
    {
        "user": "lkarfurless",
        "created_at_unixtime": 1429241481.7681541,
        "id": 2387635145796212233,
        "text": "The Electronics department at #fudgemart is amazing. Great support!",
        "created_at": "Thu Apr 16 23:31:21 +0000 2015"
    },
    {
        "user": "lhvmeehom",
        "created_at_unixtime": 1421038369.6091547,
        "id": 4308766530620233761,
        "text": "@fudgemart is better than @amazeen",
        "created_at": "Sun Jan 11 23:52:49 +0000 2015"
    },
    {
        "user": "mmelator",
        "created_at_unixtime": 1431854110.033597,
        "id": 289309899638982573,
        "text": "Fudgemart just is.",
        "created_at": "Sun May 17 05:15:10 +0000 2015"
    },
    {
        "user": "edetyers",
        "created_at_unixtime": 1446854935.6231923,
        "id": 2880478407633400514,
        "text": "Glad I bought my electronics from @fudgemart",
        "created_at": "Fri Nov 06 19:08:55 +0000 2015"
    },
    {
        "user": "akuss",
        "created_at_unixtime": 1423170939.6863396,
        "id": 1941596900217209785,
        "text": "Came home to a big smile my #fudgemart package arrived.",
        "created_at": "Thu Feb 05 16:15:39 +0000 2015"
    },
    {
        "user": "etasomthin",
        "created_at_unixtime": 1431392239.0911927,
        "id": 2563996654839192052,
        "text": "Just placed an order today. thx @fudgemart",
        "created_at": "Mon May 11 20:57:19 +0000 2015"
    },
    {
        "user": "bmelator",
        "created_at_unixtime": 1433202074.6506302,
        "id": 4261879988195170146,
        "text": "My shopping experience was delightful, @fudgemart",
        "created_at": "Mon Jun 01 19:41:14 +0000 2015"
    },
    {
        "user": "bmelator",
        "created_at_unixtime": 1424072609.9878106,
        "id": 3229722867613182954,
        "text": "Effective, Eloquent shopping! #fudgemart",
        "created_at": "Mon Feb 16 02:43:29 +0000 2015"
    },
    {
        "user": "rdeboat",
        "created_at_unixtime": 1428287987.2187266,
        "id": 174579898335126981,
        "text": "I want to bash my head into the wall so difficult. @fudgemart",
        "created_at": "Sun Apr 05 22:39:47 +0000 2015"
    },
    {
        "user": "edetyers",
        "created_at_unixtime": 1450489693.9306042,
        "id": 3128030551379405713,
        "text": "Fudgemart just is.",
        "created_at": "Fri Dec 18 20:48:13 +0000 2015"
    },
    {
        "user": "jpoole",
        "created_at_unixtime": 1434490443.9129345,
        "id": 2769081788895187997,
        "text": "likewise, @fudgemart",
        "created_at": "Tue Jun 16 17:34:03 +0000 2015"
    },
    {
        "user": "rovlight",
        "created_at_unixtime": 1441365935.306278,
        "id": 2289915249867602941,
        "text": "Customer satisfaction through the roof right now.",
        "created_at": "Fri Sep 04 07:25:35 +0000 2015"
    },
    {
        "user": "sladd",
        "created_at_unixtime": 1421764931.3703473,
        "id": 3205613366765934520,
        "text": "Just got some electronics from #fudgemart. Awesome!",
        "created_at": "Tue Jan 20 09:42:11 +0000 2015"
    },
    {
        "user": "mrofone",
        "created_at_unixtime": 1449989330.1460881,
        "id": 622805248235451705,
        "text": "Fudgemart just is.",
        "created_at": "Sun Dec 13 01:48:50 +0000 2015"
    },
    {
        "user": "sbellum",
        "created_at_unixtime": 1434646484.4717245,
        "id": 2976189753055105294,
        "text": "Shopping on #fudgemart website is carefree.",
        "created_at": "Thu Jun 18 12:54:44 +0000 2015"
    },
    {
        "user": "jpoole",
        "created_at_unixtime": 1435616961.600267,
        "id": 3725240914434343562,
        "text": "Worst purchase ever:jewelry at @fudgemart.",
        "created_at": "Mon Jun 29 18:29:21 +0000 2015"
    },
    {
        "user": "ccayne",
        "created_at_unixtime": 1422080761.7895951,
        "id": 172670870035715790,
        "text": "Happy I bought my books from @fudgemart",
        "created_at": "Sat Jan 24 01:26:01 +0000 2015"
    },
    {
        "user": "rdeboat",
        "created_at_unixtime": 1424647708.7194834,
        "id": 4215206564762296688,
        "text": "Nothing like the feeling of helplessness from a Fudgemart product.",
        "created_at": "Sun Feb 22 18:28:28 +0000 2015"
    },
    {
        "user": "etasomthin",
        "created_at_unixtime": 1436326184.1187363,
        "id": 3153174728659126740,
        "text": "I like the Fudgemart website",
        "created_at": "Tue Jul 07 23:29:44 +0000 2015"
    },
    {
        "user": "sladd",
        "created_at_unixtime": 1438744853.7723641,
        "id": 2292063448293780414,
        "text": "Fudgemart's digital downloads is lacking titles!",
        "created_at": "Tue Aug 04 23:20:53 +0000 2015"
    },
    {
        "user": "rdeboat",
        "created_at_unixtime": 1437804075.3961704,
        "id": 2914519657332717693,
        "text": "Why so horrible digital downloads? comeon, @fudgemart",
        "created_at": "Sat Jul 25 02:01:15 +0000 2015"
    },
    {
        "user": "rdeboat",
        "created_at_unixtime": 1425983976.0074625,
        "id": 2111618113293336528,
        "text": "There are new digital downloads on #fudgemart",
        "created_at": "Tue Mar 10 06:39:36 +0000 2015"
    },
    {
        "user": "ddelyons",
        "created_at_unixtime": 1424567377.4323816,
        "id": 4079267042789947516,
        "text": "Wonderful books selection, @fudgemart",
        "created_at": "Sat Feb 21 20:09:37 +0000 2015"
    },
    {
        "user": "bmelator",
        "created_at_unixtime": 1450124812.906248,
        "id": 2182142241185830752,
        "text": "There are new digital downloads on #fudgemart",
        "created_at": "Mon Dec 14 15:26:52 +0000 2015"
    },
    {
        "user": "sbellum",
        "created_at_unixtime": 1440973654.4800532,
        "id": 396161568432992745,
        "text": "Yo, @fudgemart",
        "created_at": "Sun Aug 30 18:27:34 +0000 2015"
    },
    {
        "user": "ojouglad",
        "created_at_unixtime": 1448478133.4021442,
        "id": 31447523381565226,
        "text": "Techical support for my new computer as A+, thank you @fudgemart",
        "created_at": "Wed Nov 25 14:02:13 +0000 2015"
    },
    {
        "user": "bmelator",
        "created_at_unixtime": 1423605334.253123,
        "id": 860384434612146434,
        "text": "Happy I bought my electronics from @fudgemart",
        "created_at": "Tue Feb 10 16:55:34 +0000 2015"
    },
    {
        "user": "ojouglad",
        "created_at_unixtime": 1429990691.9710252,
        "id": 4152564397781852701,
        "text": "Effective, Eloquent shopping! #fudgemart",
        "created_at": "Sat Apr 25 15:38:11 +0000 2015"
    },
    {
        "user": "ojouglad",
        "created_at_unixtime": 1446736890.8810325,
        "id": 163652426885086534,
        "text": "Do you enjoy digital downloads? Try @fudgemart.",
        "created_at": "Thu Nov 05 10:21:30 +0000 2015"
    },
    {
        "user": "rovlight",
        "created_at_unixtime": 1436235342.2196074,
        "id": 4422564122455975455,
        "text": "There are some new products on Fudgemart. #fudgemart",
        "created_at": "Mon Jul 06 22:15:42 +0000 2015"
    },
    {
        "user": "ojouglad",
        "created_at_unixtime": 1439337079.9770067,
        "id": 987112882101052267,
        "text": "The Electronics department at #fudgemart is amazing. So helpful!",
        "created_at": "Tue Aug 11 19:51:19 +0000 2015"
    },
    {
        "user": "bmelator",
        "created_at_unixtime": 1448681889.1066382,
        "id": 4532891857115342037,
        "text": "Shopping 4 books, electronics, and jewelry at #fudgemart.",
        "created_at": "Fri Nov 27 22:38:09 +0000 2015"
    },
    {
        "user": "edetyers",
        "created_at_unixtime": 1424930035.741979,
        "id": 2873970204275959017,
        "text": "Wonderful books selection, @fudgemart",
        "created_at": "Thu Feb 26 00:53:55 +0000 2015"
    },
    {
        "user": "rdeboat",
        "created_at_unixtime": 1427278318.594729,
        "id": 1345484741251444208,
        "text": "Terrible. So Bad. #fudgemart",
        "created_at": "Wed Mar 25 06:11:58 +0000 2015"
    },
    {
        "user": "bmelator",
        "created_at_unixtime": 1449377066.824421,
        "id": 3070340289584481638,
        "text": "The digital downloads section of #fudgemart looks abandoned.",
        "created_at": "Sat Dec 05 23:44:26 +0000 2015"
    },
    {
        "user": "sladd",
        "created_at_unixtime": 1431782854.7333283,
        "id": 3211825063350395119,
        "text": "Hey, @fudgemart. You've got products with benefits!",
        "created_at": "Sat May 16 09:27:34 +0000 2015"
    },
    {
        "user": "jpoole",
        "created_at_unixtime": 1440371534.97549,
        "id": 1289741990638536176,
        "text": "Just got some Jewelry from #fudgemart. Awesome!",
        "created_at": "Sun Aug 23 19:12:14 +0000 2015"
    },
    {
        "user": "lkarfurless",
        "created_at_unixtime": 1442321292.894814,
        "id": 2381384671306685035,
        "text": "Love or hate it. Fudgemart just is.",
        "created_at": "Tue Sep 15 08:48:12 +0000 2015"
    },
    {
        "user": "ojouglad",
        "created_at_unixtime": 1449782463.1721427,
        "id": 1818640726187416983,
        "text": "Love or hate it. Fudgemart just is.",
        "created_at": "Thu Dec 10 16:21:03 +0000 2015"
    },
    {
        "user": "lkarfurless",
        "created_at_unixtime": 1441989451.8911395,
        "id": 3041786161427152798,
        "text": "The Electronics department at #fudgemart is amazing. Great support!",
        "created_at": "Fri Sep 11 12:37:31 +0000 2015"
    },
    {
        "user": "ccayne",
        "created_at_unixtime": 1449520019.7611043,
        "id": 2450801970960939074,
        "text": "I Need more books, @fudgemart #encouraging.",
        "created_at": "Mon Dec 07 15:26:59 +0000 2015"
    },
    {
        "user": "bmelator",
        "created_at_unixtime": 1435542245.6862757,
        "id": 4050627582801686850,
        "text": "Customer satisfaction through the roof right now.",
        "created_at": "Sun Jun 28 21:44:05 +0000 2015"
    },
    {
        "user": "sbellum",
        "created_at_unixtime": 1441382076.7488728,
        "id": 1081071839378741004,
        "text": "The Electronics department at #fudgemart is amazing. So helpful!",
        "created_at": "Fri Sep 04 11:54:36 +0000 2015"
    },
    {
        "user": "sofewe",
        "created_at_unixtime": 1434972905.5618699,
        "id": 288193718935057797,
        "text": "Why is customer support so bad at @fudgemart? #frustrated.",
        "created_at": "Mon Jun 22 07:35:05 +0000 2015"
    },
    {
        "user": "rovlight",
        "created_at_unixtime": 1430587435.4131656,
        "id": 2547075790004191030,
        "text": "Happy I bought my jewelry from @fudgemart",
        "created_at": "Sat May 02 13:23:55 +0000 2015"
    },
    {
        "user": "balott",
        "created_at_unixtime": 1422715759.9812376,
        "id": 3571817042062085589,
        "text": "The books department at #fudgemart is amazing. Very helpful!",
        "created_at": "Sat Jan 31 09:49:19 +0000 2015"
    },
    {
        "user": "mrofone",
        "created_at_unixtime": 1445805558.7719054,
        "id": 1639378056202526627,
        "text": "Fudgemart customer support is horrible. The worst.",
        "created_at": "Sun Oct 25 16:39:18 +0000 2015"
    },
    {
        "user": "balott",
        "created_at_unixtime": 1426863644.9467378,
        "id": 703035106264885579,
        "text": "I Need more books, @fudgemart #encouraging.",
        "created_at": "Fri Mar 20 11:00:44 +0000 2015"
    },
    {
        "user": "etasomthin",
        "created_at_unixtime": 1438283877.2785008,
        "id": 4417679717285469564,
        "text": "Just placed an order today. thx @fudgemart",
        "created_at": "Thu Jul 30 15:17:57 +0000 2015"
    },
    {
        "user": "rdeboat",
        "created_at_unixtime": 1442039248.443566,
        "id": 4456571739026747494,
        "text": "Worst purchase ever:jewelry at @fudgemart.",
        "created_at": "Sat Sep 12 02:27:28 +0000 2015"
    },
    {
        "user": "edetyers",
        "created_at_unixtime": 1431079216.4781337,
        "id": 3680677911783110838,
        "text": "Happy with my service from @fudgemart",
        "created_at": "Fri May 08 06:00:16 +0000 2015"
    },
    {
        "user": "lkarfurless",
        "created_at_unixtime": 1437332467.8374715,
        "id": 2592833731661470353,
        "text": "Really enjoying my jewelry purchase from @fudgemart",
        "created_at": "Sun Jul 19 15:01:07 +0000 2015"
    },
    {
        "user": "lhvmeehom",
        "created_at_unixtime": 1425756203.489279,
        "id": 4265159348086572531,
        "text": "Fudgemart's digital downloads is lacking titles!",
        "created_at": "Sat Mar 07 14:23:23 +0000 2015"
    },
    {
        "user": "edetyers",
        "created_at_unixtime": 1435527862.109586,
        "id": 319268341002965093,
        "text": "Who uses the fudgemart website",
        "created_at": "Sun Jun 28 17:44:22 +0000 2015"
    },
    {
        "user": "edetyers",
        "created_at_unixtime": 1430231600.2330341,
        "id": 2289865774247319661,
        "text": "Do you enjoy books? Try @fudgemart.",
        "created_at": "Tue Apr 28 10:33:20 +0000 2015"
    },
    {
        "user": "sofewe",
        "created_at_unixtime": 1434518629.551765,
        "id": 3753221445441091934,
        "text": "Hey fudgemart, why is your support so bad? #upset",
        "created_at": "Wed Jun 17 01:23:49 +0000 2015"
    },
    {
        "user": "rdeboat",
        "created_at_unixtime": 1423579850.0959744,
        "id": 2202783387172626202,
        "text": "Worst purchase ever: digital downloads at @fudgemart.",
        "created_at": "Tue Feb 10 09:50:50 +0000 2015"
    },
    {
        "user": "bmelator",
        "created_at_unixtime": 1446937363.2892554,
        "id": 3600386236360425133,
        "text": "Just got some electronics from #fudgemart. Awesome!",
        "created_at": "Sat Nov 07 18:02:43 +0000 2015"
    },
    {
        "user": "akuss",
        "created_at_unixtime": 1422605110.6258352,
        "id": 3317702554179085789,
        "text": "I was very happy with my latest purchase from #fudgemart",
        "created_at": "Fri Jan 30 03:05:10 +0000 2015"
    },
    {
        "user": "akuss",
        "created_at_unixtime": 1441345877.468999,
        "id": 807722401942079586,
        "text": "Very satisfying when your package arrives from #fudgemart",
        "created_at": "Fri Sep 04 01:51:17 +0000 2015"
    },
    {
        "user": "edetyers",
        "created_at_unixtime": 1428186595.6847186,
        "id": 3697958769145056083,
        "text": "Love or hate it. Fudgemart just is.",
        "created_at": "Sat Apr 04 18:29:55 +0000 2015"
    },
    {
        "user": "lhvmeehom",
        "created_at_unixtime": 1443405846.3824556,
        "id": 1538427465304884685,
        "text": "Happy I bought my electronics from @fudgemart",
        "created_at": "Sun Sep 27 22:04:06 +0000 2015"
    },
    {
        "user": "rdeboat",
        "created_at_unixtime": 1450466739.8755896,
        "id": 1255330140401397194,
        "text": "Hey fudgemart, why is your support so bad? #angry",
        "created_at": "Fri Dec 18 14:25:39 +0000 2015"
    },
    {
        "user": "mrofone",
        "created_at_unixtime": 1450399366.4330015,
        "id": 248682599289583886,
        "text": "I'm really enjoying my new stuff from fudgemart",
        "created_at": "Thu Dec 17 19:42:46 +0000 2015"
    },
    {
        "user": "lhvmeehom",
        "created_at_unixtime": 1436369448.3824775,
        "id": 3633515458631594962,
        "text": "The Electronics department at #fudgemart is amazing. Great support!",
        "created_at": "Wed Jul 08 11:30:48 +0000 2015"
    },
    {
        "user": "tanott",
        "created_at_unixtime": 1443636621.7939663,
        "id": 2041584010186134058,
        "text": "This flawed jewelry has me thinking: 'why buy from Fudgemart?'",
        "created_at": "Wed Sep 30 14:10:21 +0000 2015"
    },
    {
        "user": "ccayne",
        "created_at_unixtime": 1440311057.5564973,
        "id": 4302056590735306830,
        "text": "Love or hate it. Fudgemart just is.",
        "created_at": "Sun Aug 23 02:24:17 +0000 2015"
    },
    {
        "user": "rdeboat",
        "created_at_unixtime": 1436380608.6134818,
        "id": 1085812989444393574,
        "text": "My shopping experience was delightful, @fudgemart",
        "created_at": "Wed Jul 08 14:36:48 +0000 2015"
    },
    {
        "user": "ojouglad",
        "created_at_unixtime": 1451263074.3142745,
        "id": 1084708941670758204,
        "text": "Just got some Jewelry from #fudgemart. Awesome!",
        "created_at": "Sun Dec 27 19:37:54 +0000 2015"
    },
    {
        "user": "mrofone",
        "created_at_unixtime": 1423757511.661395,
        "id": 4169542695371333859,
        "text": "Worst purchase ever: digital downloads at @fudgemart.",
        "created_at": "Thu Feb 12 11:11:51 +0000 2015"
    },
    {
        "user": "bmelator",
        "created_at_unixtime": 1437996137.145927,
        "id": 3402688790838546229,
        "text": "Just placed an order today. thx @fudgemart",
        "created_at": "Mon Jul 27 07:22:17 +0000 2015"
    },
    {
        "user": "mmelator",
        "created_at_unixtime": 1423200388.056868,
        "id": 1772214851460048045,
        "text": "There are new digital downloads on #fudgemart",
        "created_at": "Fri Feb 06 00:26:28 +0000 2015"
    },
    {
        "user": "mmelator",
        "created_at_unixtime": 1449516204.5099237,
        "id": 2504512371409454522,
        "text": "Really enjoying my jewelry purchase from @fudgemart",
        "created_at": "Mon Dec 07 14:23:24 +0000 2015"
    },
    {
        "user": "lkarfurless",
        "created_at_unixtime": 1436061417.426504,
        "id": 4411076214511812708,
        "text": "The books department at #fudgemart is amazing. Very helpful!",
        "created_at": "Sat Jul 04 21:56:57 +0000 2015"
    },
    {
        "user": "rdeboat",
        "created_at_unixtime": 1432516850.5048804,
        "id": 1401862740659662517,
        "text": "Bad digital downloads @fudgemart. Poor selection.",
        "created_at": "Sun May 24 21:20:50 +0000 2015"
    },
    {
        "user": "jpoole",
        "created_at_unixtime": 1424577364.5122066,
        "id": 1646180771464245340,
        "text": "Stellar experience at fudgemart. Kudos.",
        "created_at": "Sat Feb 21 22:56:04 +0000 2015"
    },
    {
        "user": "ojouglad",
        "created_at_unixtime": 1450829391.1250527,
        "id": 4500900082967624663,
        "text": "What's not to like? They have everything.",
        "created_at": "Tue Dec 22 19:09:51 +0000 2015"
    },
    {
        "user": "edetyers",
        "created_at_unixtime": 1432210044.2661793,
        "id": 3328255826334491808,
        "text": "Do you enjoy digital downloads? Try @fudgemart.",
        "created_at": "Thu May 21 08:07:24 +0000 2015"
    }
]