[
    {
        "course_id": 1045,
        "rating": 1,
        "evaluation": "The Calculus course failed to meet my expectations as a student. The instructor presented the material in a confusing way, often skipping steps and assuming that we understood the material. The homework assignments and exams were challenging and not properly aligned with the material that was covered in class. The instructor did not provide much help or guidance outside of class and seemed uninterested in answering questions or providing feedback. The course structure and pacing were poorly planned, leaving me feeling overwhelmed and unprepared for the material. Overall, I was disappointed with the course and would not recommend it to others."
    },
    {
        "course_id": 1045,
        "rating": 2,
        "evaluation": "I found this course in Calculus to be extremely difficult to follow and comprehend. The professor seemed disengaged and did not provide clear explanations or examples during lectures. The homework assignments were overly challenging and did not align with the material covered in class. The grading criteria was inconsistent and often unclear. Additionally, the professor was unapproachable and did not offer office hours or other resources for additional help. Overall, I do not feel that I gained a sufficient understanding of calculus from this course and would not recommend it to others."
    },
    {
        "course_id": 1050,
        "rating": 4,
        "evaluation": "I thoroughly enjoyed my experience in the Chemistry course this semester. The instructor provided clear and concise lectures, and actively engaged the class in meaningful discussions. The laboratory sessions were well-organized and provided an opportunity to apply the concepts learned in lecture. The course material was challenging, but the instructor provided ample resources and support to ensure student success. I appreciated the emphasis placed on real-world applications of chemistry and how the material related to current events. Overall, this course has expanded my knowledge of chemistry and I feel well-prepared for future courses and a potential career in the field."
    },
    {
        "course_id": 1050,
        "rating": 5,
        "evaluation": "I absolutely loved this course in Chemistry! The instructor was incredibly knowledgeable and passionate about the subject, and made the material engaging and easy to understand. The labs were especially fun and hands-on, and I learned a lot by doing experiments and observing chemical reactions. The course content was challenging, but the instructor was always available to answer questions and provide additional help when needed. Overall, I feel much more confident in my understanding of Chemistry, and I would highly recommend this course to anyone interested in the subject."
    },
    {
        "course_id": 1050,
        "rating": 4,
        "evaluation": "I am thrilled to share my positive evaluation of the Chemistry course that I took this semester. The instructor was incredibly knowledgeable and passionate about the subject matter, which made lectures engaging and informative. The lab sessions were also well-structured, and the hands-on experiments helped solidify concepts learned in class. The assignments were challenging but manageable, and the prompt feedback helped me stay on track and improve my understanding of the material. Additionally, the online resources provided were invaluable in preparing for exams. Overall, I would highly recommend this course to anyone interested in learning more about Chemistry and I feel grateful for the opportunity to have taken it."
    },
    {
        "course_id": 1061,
        "rating": 5,
        "evaluation": "I really enjoyed this course in Physics. The professor was very knowledgeable and engaging, and made the material easy to understand. The labs and demonstrations were well-designed and really helped to solidify the concepts we were learning. The exams were challenging but fair, and the feedback given on assignments was very helpful. I appreciated the use of real-world examples and current research to supplement our learning. Overall, I feel much more confident in my understanding of physics and its applications thanks to this course. I highly recommend it to anyone interested in this subject matter."
    },
    {
        "course_id": 1061,
        "rating": 2,
        "evaluation": "The Physics course I took this semester was a disappointment. The instructor failed to engage the students and mostly relied on lectures, which were tedious and lacked excitement. The assignments and exams were extremely difficult, and there was little support offered to help students succeed. Additionally, the professor's communication skills were lacking, which made it difficult to understand the material. The course lacked hands-on activities, which would have been useful to help students visualize the concepts. Overall, I would not recommend this course to anyone looking for an engaging and supportive learning experience in Physics."
    },
    {
        "course_id": 1061,
        "rating": 3,
        "evaluation": "I had an ok experience in my Physics course this semester. The professor was knowledgeable and engaging, making even the most complex concepts easy to grasp. The course content was well-organized and presented in a way that kept me interested and invested in the subject. The assignments and assessments were challenging yet fair, and provided ample opportunities to practice and improve my skills. The professor was sometimes unavailable outside of class to answer any questions and provide additional support. "
    },
    {
        "course_id": 1061,
        "rating": 5,
        "evaluation": "I would like to take this opportunity to express my gratitude and appreciation for the physics course I have taken this semester. The course content was challenging but presented in an engaging and comprehensible way, which kept me motivated throughout the term. The instructor was knowledgeable and passionate about the subject, and her enthusiasm was infectious. The lab exercises were particularly enjoyable, as they allowed us to apply the theory we had learned in class to real-world situations. Overall, this course has been an enriching and rewarding experience, and I highly recommend it to anyone looking to expand their understanding of physics. Thank you for offering such a fantastic course!"
    },
    {
        "course_id": 1061,
        "rating": 4,
        "evaluation": "I thoroughly enjoyed this course in Physics. The professor was knowledgeable and presented the material in an engaging manner that kept me interested throughout the semester. The labs were well-designed and allowed me to apply the concepts learned in class to real-world situations. The assignments were challenging but fair, and the feedback from the professor helped me to improve my understanding and performance. I appreciated the opportunity to work with my classmates on group projects, which enhanced my teamwork skills. Overall, this course exceeded my expectations and provided me with a solid foundation in Physics that I can build upon in future studies and career opportunities."
    },
    {
        "course_id": 2021,
        "rating": 4,
        "evaluation": "I thoroughly enjoyed the Composition course and found it to be incredibly valuable in improving my writing skills. The instructor was engaging, knowledgeable, and provided helpful feedback on my writing assignments. The course materials were well-organized and included a variety of readings and writing prompts that challenged me to think critically and creatively. The peer review sessions were especially helpful in getting feedback from others and improving my own editing skills. I appreciated the emphasis on developing a clear and concise writing style, and I feel much more confident in my ability to write effectively. Overall, this course exceeded my expectations and I would highly recommend it to anyone looking to improve their writing skills."
    },
    {
        "course_id": 2021,
        "rating": 5,
        "evaluation": "I am delighted to give my evaluation of the Composition course I took this semester. The course structure was excellent, and the professor provided a wide range of learning resources, including online materials, discussions, and writing exercises. The course readings and assignments were challenging, but they were designed to develop our writing skills, and the feedback we received on our writing was constructive and insightful. The professor was also very approachable and provided personalized guidance to help us improve our writing skills. I am grateful for this course as it has significantly improved my writing ability, and I would highly recommend it to anyone looking to enhance their composition skills."
    },
    {
        "course_id": 2021,
        "rating": 1,
        "evaluation": "I regret to say that my experience in the Composition course was unsatisfactory. The instructor focused mainly on grammatical errors and had very limited interest in the content of the essays. There was no emphasis on creativity or critical thinking. Furthermore, the assignments seemed repetitive and the workload was overwhelming. Despite requesting feedback and asking for clarification, I received very little help from the instructor. The grading system was also unclear and subjective. I believe that this course could be improved by providing more guidance, offering constructive criticism, and promoting an open-minded atmosphere that encourages experimentation and exploration."
    },
    {
        "course_id": 2030,
        "rating": 4,
        "evaluation": "I am extremely delighted with the Poetry course and highly recommend it to anyone who is passionate about literature. The course content was thought-provoking and fascinating, and the teacher's approach to teaching poetry was both innovative and inspiring. The assigned readings were enriching, and I appreciated the thought-provoking discussions we had in class. I also appreciated the teacher's feedback on our writing assignments, which was incredibly constructive and insightful. The workload was reasonable, and the course structure was well-planned and organized. Overall, it was an enriching experience, and I have a newfound appreciation for poetry and its diverse forms."
    },
    {
        "course_id": 2030,
        "rating": 5,
        "evaluation": "I thoroughly enjoyed the Poetry course this semester. The professor's knowledge and enthusiasm for the subject matter was evident in every lecture and discussion. The course materials were engaging and provided a diverse range of voices and styles to explore. The writing assignments challenged me to think critically about my own creative process and pushed me to expand my skills as a poet. Additionally, the workshop format of the course allowed me to receive feedback from my peers and improve upon my work. Overall, this course has deepened my appreciation for the art of poetry and has inspired me to continue pursuing it in my own writing."
    },
    {
        "course_id": 2042,
        "rating": 4,
        "evaluation": "I thoroughly enjoyed this Literature course! The professor was engaging, knowledgeable, and passionate about the subject matter. The readings were thought-provoking and diverse, providing me with a new perspective on literature. The class discussions were stimulating, as I was able to learn from my peers and share my own ideas. The assignments challenged me to think critically and develop my own unique interpretations of the texts. The course structure was well-organized and allowed me to manage my workload effectively. Overall, this course has expanded my understanding and appreciation of Literature, and I would highly recommend it to anyone looking for an enriching and rewarding academic experience."
    },
    {
        "course_id": 2042,
        "rating": 4,
        "evaluation": "This course in literature has been a truly inspiring and enriching experience for me. The professor's passion for the subject is infectious and has made me appreciate literature on a deeper level. I particularly enjoyed the class discussions which were lively and thought-provoking, and I found the assignments to be both challenging and rewarding. I appreciate the diversity of the works studied and how they provided a glimpse into different cultures and time periods. Overall, I feel that this course has helped me become a more thoughtful and engaged reader, and I would highly recommend it to anyone interested in literature."
    },
    {
        "course_id": 2042,
        "rating": 3,
        "evaluation": "The Literature course was okay. The course materials were challenging but stimulating, and the discussions helped me gain a new perspective on the literary works we studied. I especially appreciated the variety of texts we covered, from classic novels to contemporary poetry. The assignments were also well-designed and helped me develop my analytical and writing skills. Overall, this course was a valuable and rewarding addition to my education."
    },
    {
        "course_id": 4022,
        "rating": 1,
        "evaluation": "I found the Microeconomics course very challenging, and the professor didn't help much in terms of clarifying the subject. The material was taught in a very dry manner, and it was hard to keep up with the lectures. Additionally, the professor didn't provide enough feedback on assignments and exams, so it was hard to know where I needed improvement. Overall, I didn't feel like I gained a strong understanding of the subject, and I wish the professor had been more engaging and interactive in the classroom."
    },
    {
        "course_id": 4022,
        "rating": 1,
        "evaluation": "This course in Microeconomics was not what I expected. The content was dry and the professor's teaching style was not engaging. The exams were difficult, and the grading was unclear. The class was poorly organized, and the workload was overwhelming, leaving little time for additional study. The textbook was dense, and the professor did not provide enough supplemental materials. The class discussions were superficial, and the professor did not encourage critical thinking. Overall, I was disappointed with this course and would not recommend it to others."
    },
    {
        "course_id": 4022,
        "rating": 4,
        "evaluation": "I thoroughly enjoyed my Microeconomics course and found it to be incredibly informative and engaging. The professor was knowledgeable and had a clear passion for the subject matter, which made the lectures all the more interesting. The course materials, including the textbook and supplementary materials, were well-chosen and helped me to understand the concepts and theories presented in class. The assignments and exams were challenging but fair, and provided ample opportunity to test my knowledge and skills. Overall, I feel that this course has given me a strong foundation in Microeconomics and has helped me to better understand the workings of the economy. I would highly recommend this course to anyone interested in economics."
    },
    {
        "course_id": 4022,
        "rating": 5,
        "evaluation": "I absolutely loved this Microeconomics course! The professor was knowledgeable and engaging, and the course material was presented in a clear and easy-to-understand way. The assignments were challenging but fair, and I appreciated the real-world examples that were used to illustrate key concepts. I feel like I have a much better understanding of how markets work and how economic principles can be applied to everyday life. Overall, I would highly recommend this course to anyone interested in economics. I'm grateful for the opportunity to have taken this class and for the knowledge and skills I've gained."
    },
    {
        "course_id": 4022,
        "rating": 3,
        "evaluation": "I thoroughly enjoyed taking Microeconomics this semester! The course was well-structured and the professor's teaching style made the material easy to understand. The use of real-world examples helped to apply the concepts learned in class to the world around us. The assignments and exams were challenging but fair, and the feedback given was helpful in improving my understanding. The use of online resources and discussion forums helped to create an engaging learning environment. Overall, I would highly recommend this course to anyone interested in the field of economics. Thank you to the professor for an excellent semester!"
    },
    {
        "course_id": 4022,
        "rating": 2,
        "evaluation": "I found the Microeconomics course to be very disappointing. The material was presented in a very confusing way and the professor did not provide adequate explanations for some of the more difficult concepts. The course was also very disorganized, with the professor changing the schedule and the topics covered on a regular basis. There were also very few opportunities for interaction with other students, and the assignments were not challenging or engaging. Overall, I would not recommend this course to anyone looking to gain a solid understanding of microeconomics."
    },
    {
        "course_id": 4041,
        "rating": 2,
        "evaluation": "I found the Macroeconomics course to be disorganized and difficult to follow. The professor often went on tangents that were not related to the subject matter and did not provide clear explanations for some of the complex concepts. The assignments and exams did not adequately reflect the material covered in class and felt too heavily focused on memorization rather than critical thinking and application. Additionally, the use of outdated textbooks and resources made it challenging to connect the course material to real-world economic situations. Overall, I was disappointed with the course and do not feel that I gained a comprehensive understanding of macroeconomics."
    },
    {
        "course_id": 4041,
        "rating": 5,
        "evaluation": "I absolutely loved this course in Macroeconomics! The professor was extremely knowledgeable and passionate about the subject, which made the lectures engaging and easy to follow. The assignments were challenging but fair, and they helped me develop a deeper understanding of the material. The course also included group discussions and activities that encouraged us to apply the concepts we learned to real-world scenarios. Overall, this course was a fantastic learning experience that helped me build a solid foundation in Macroeconomics. I would highly recommend it to anyone interested in economics or looking to expand their knowledge in this field."
    },
    {
        "course_id": 4041,
        "rating": 1,
        "evaluation": "Unfortunately, I found this course in Macroeconomics to be very challenging. The instructor didn't explain the concepts clearly and didn't provide enough examples or case studies to help me understand the material. The course materials were outdated, and we didn't have access to the latest research or trends in the field. Additionally, the assessments were difficult, and I struggled to perform well on the exams despite studying for hours. Overall, I was disappointed in this course and felt like I didn't learn as much as I had hoped."
    },
    {
        "course_id": 4041,
        "rating": 1,
        "evaluation": "I found the Macroeconomics course to be quite disappointing. The course material was not presented in a clear and concise manner, and the instructor seemed uninterested in helping struggling students. The assignments were not helpful in solidifying my understanding of the material and were often confusing. The exams were poorly designed and did not reflect the concepts that were taught in class. The lack of feedback from the instructor made it difficult to know where to improve. Overall, I would not recommend this course to anyone looking to gain a solid understanding of Macroeconomics."
    },
    {
        "course_id": 4061,
        "rating": 5,
        "evaluation": "\"I absolutely loved this course in Quantitative Analysis! The instructor was knowledgeable, approachable, and dedicated to helping each and every student succeed. The coursework was challenging but engaging, and I felt like I gained a deep understanding of important statistical concepts and methods. The assignments were designed to build on each other, allowing me to apply what I learned in class to real-world situations. The professor also provided helpful feedback on our work and was always available to answer questions. Overall, I would highly recommend this course to anyone looking to improve their skills in quantitative analysis.\""
    },
    {
        "course_id": 4061,
        "rating": 4,
        "evaluation": "I thoroughly enjoyed the Quantitative course. The instructor was knowledgeable and passionate about the subject, making the material easy to understand. The course structure was well-organized and allowed for hands-on experience with data analysis. The assignments and assessments were challenging but fair and gave me the opportunity to apply what I had learned. I appreciated the use of real-world examples and case studies that made the content relevant and engaging. The class discussions were thought-provoking and fostered a collaborative learning environment. Overall, this course has provided me with valuable skills that I can apply in my future academic and professional endeavors. I highly recommend this course to anyone interested in gaining a deeper understanding of quantitative methods."
    }
]